FPU/FP_Mul/dump.vcd
$date
	Tue Oct 28 22:46:13 2025
$end
$version
	Icarus Verilog
$end
$timescale
	1ps
$end
$scope module FPMul_tb $end
$var wire 53 ! mantissa_normalized [52:0] $end
$var wire 128 " mantissa_product [127:0] $end
$var wire 1 # round $end
$var wire 64 $ temp1 [63:0] $end
$var wire 64 % temp2 [63:0] $end
$var wire 64 & out [63:0] $end
$var wire 53 ' mantissa_rounded [52:0] $end
$var wire 53 ( mantissa_renormalized [52:0] $end
$var reg 64 ) N1 [63:0] $end
$var reg 64 * N2 [63:0] $end
$scope module uut $end
$var wire 64 + N1 [63:0] $end
$var wire 64 , N2 [63:0] $end
$var wire 1 - is_NaN $end
$var wire 1 . is_inf $end
$var wire 1 / is_inf_1 $end
$var wire 1 0 is_inf_2 $end
$var wire 1 1 is_zero $end
$var wire 64 2 out_2 [63:0] $end
$var wire 1 3 round $end
$var wire 64 4 temp2 [63:0] $end
$var wire 64 5 temp1 [63:0] $end
$var wire 64 6 out_3 [63:0] $end
$var wire 64 7 out_1 [63:0] $end
$var wire 64 8 out [63:0] $end
$var wire 65 9 mantissa_rounded_cout [64:0] $end
$var wire 64 : mantissa_rounded [63:0] $end
$var wire 52 ; mantissa_renormalized [51:0] $end
$var wire 128 < mantissa_product [127:0] $end
$var wire 53 = mantissa_normalized [52:0] $end
$var wire 64 > exponent_4 [63:0] $end
$var wire 64 ? exponent_3 [63:0] $end
$var wire 64 @ exponent_2 [63:0] $end
$var wire 64 A exponent_1 [63:0] $end
$var wire 1 B exp_overflow $end
$var wire 1 C cout $end
$var wire 1 D S_2 $end
$var wire 1 E S_1 $end
$var wire 1 F S $end
$var wire 1 G R $end
$var wire 52 H M_2 [51:0] $end
$var wire 52 I M_1 [51:0] $end
$var wire 1 J L $end
$var wire 1 K G $end
$var wire 11 L E_2 [10:0] $end
$var wire 11 M E_1 [10:0] $end
$upscope $end
$upscope $end
$enddefinitions $end
$comment Show the parameter values. $end
$dumpall
$end
#0
$dumpvars
b10000000000 M
b10000000000 L
0K
0J
b0 I
b1000000000000000000000000000000000000000000000000000 H
0G
0F
0E
0D
0C
0B
b100000000000 A
b10000000001 @
b10000000001 ?
b10000000001 >
b11000000000000000000000000000000000000000000000000000 =
b110000000000000000000000000000000000000000000000000000000000000000000000000000000000000000000000000000000 <
b1000000000000000000000000000000000000000000000000000 ;
b11000000000000000000000000000000000000000000000000000 :
b11000000000000000000000000000000000000000000000000000 9
b100000000011000000000000000000000000000000000000000000000000000 8
b100000000011000000000000000000000000000000000000000000000000000 7
b1 6
b10000000000000000000000000000000000000000000000000000 5
b11000000000000000000000000000000000000000000000000000 4
03
b111111111111000000000000000000000000000000000000000000000000000 2
01
00
0/
0.
0-
b100000000001000000000000000000000000000000000000000000000000000 ,
b100000000000000000000000000000000000000000000000000000000000000 +
b100000000001000000000000000000000000000000000000000000000000000 *
b100000000000000000000000000000000000000000000000000000000000000 )
b1000000000000000000000000000000000000000000000000000 (
b11000000000000000000000000000000000000000000000000000 '
b100000000011000000000000000000000000000000000000000000000000000 &
b11000000000000000000000000000000000000000000000000000 %
b10000000000000000000000000000000000000000000000000000 $
0#
b110000000000000000000000000000000000000000000000000000000000000000000000000000000000000000000000000000000 "
b11000000000000000000000000000000000000000000000000000 !
$end
#10000
b1110110000000000000000000000000000000000000000000000 (
b1110110000000000000000000000000000000000000000000000 ;
b11110110000000000000000000000000000000000000000000000 '
b11110110000000000000000000000000000000000000000000000 :
b0 &
b0 8
b11110110000000000000000000000000000000000000000000000 9
b11110110000000000000000000000000000000000000000000000 !
b11110110000000000000000000000000000000000000000000000 =
11
b1101110110000000000000000000000000000000000000000000000 7
b11110110000000000000000000000000000000000000000000000 %
b11110110000000000000000000000000000000000000000000000 4
b111101100000000000000000000000000000000000000000000000000000000000000000000000000000000000000000000000000 "
b111101100000000000000000000000000000000000000000000000000000000000000000000000000000000000000000000000000 <
b1110110000000000000000000000000000000000000000000000 H
b10000000101 L
b110 >
b110 ?
b110 @
b10000000101 A
b0 M
b100000001011110110000000000000000000000000000000000000000000000 *
b100000001011110110000000000000000000000000000000000000000000000 ,
b0 )
b0 +
#20000
b1110000000000000000000000000000000000000000000000000 (
b1110000000000000000000000000000000000000000000000000 ;
b11110000000000000000000000000000000000000000000000000 '
b11110000000000000000000000000000000000000000000000000 :
b100000000011110000000000000000000000000000000000000000000000000 &
b100000000011110000000000000000000000000000000000000000000000000 8
b11110000000000000000000000000000000000000000000000000 9
b11110000000000000000000000000000000000000000000000000 !
b11110000000000000000000000000000000000000000000000000 =
01
b100000000011110000000000000000000000000000000000000000000000000 7
b10100000000000000000000000000000000000000000000000000 %
b10100000000000000000000000000000000000000000000000000 4
b100000000000000000000000000000000000000000000000000 H
b10000000001 L
b11000000000000000000000000000000000000000000000000000 $
b11000000000000000000000000000000000000000000000000000 5
b111100000000000000000000000000000000000000000000000000000000000000000000000000000000000000000000000000000 "
b111100000000000000000000000000000000000000000000000000000000000000000000000000000000000000000000000000000 <
b1000000000000000000000000000000000000000000000000000 I
b10000000001 >
b10000000001 ?
b10000000001 @
b100000000000 A
b1111111111 M
b100000000010100000000000000000000000000000000000000000000000000 *
b100000000010100000000000000000000000000000000000000000000000000 ,
b11111111111000000000000000000000000000000000000000000000000000 )
b11111111111000000000000000000000000000000000000000000000000000 +
#30000
b1000000000000000000000000000000000000000000000000000 (
b1000000000000000000000000000000000000000000000000000 ;
b11000000000000000000000000000000000000000000000000000 '
b1100000000011000000000000000000000000000000000000000000000000000 &
b1100000000011000000000000000000000000000000000000000000000000000 8
b11000000000000000000000000000000000000000000000000000 :
b11000000000000000000000000000000000000000000000000000 9
b11000000000000000000000000000000000000000000000000000 !
b11000000000000000000000000000000000000000000000000000 =
b1100000000011000000000000000000000000000000000000000000000000000 7
b11000000000000000000000000000000000000000000000000000 %
b11000000000000000000000000000000000000000000000000000 4
b1000000000000000000000000000000000000000000000000000 H
b10000000000 L
b10000000000000000000000000000000000000000000000000000 $
b10000000000000000000000000000000000000000000000000000 5
b110000000000000000000000000000000000000000000000000000000000000000000000000000000000000000000000000000000 "
b110000000000000000000000000000000000000000000000000000000000000000000000000000000000000000000000000000000 <
b0 I
b10000000001 >
b10000000001 ?
b10000000001 @
b100000000000 A
b10000000000 M
1E
b100000000001000000000000000000000000000000000000000000000000000 *
b100000000001000000000000000000000000000000000000000000000000000 ,
b1100000000000000000000000000000000000000000000000000000000000000 )
b1100000000000000000000000000000000000000000000000000000000000000 +
#40000
b0 (
b0 ;
b10000000000000000000000000000000000000000000000000000 '
b10000000000000000000000000000000000000000000000000000 :
b0 &
b0 8
b10000000000000000000000000000000000000000000000000000 9
b10000000000000000000000000000000000000000000000000000 !
b10000000000000000000000000000000000000000000000000000 =
11
1.
b100000000010000000000000000000000000000000000000000000000000000 7
b10000000000000000000000000000000000000000000000000000 %
b10000000000000000000000000000000000000000000000000000 4
b100000000000000000000000000000000000000000000000000000000000000000000000000000000000000000000000000000000 "
b100000000000000000000000000000000000000000000000000000000000000000000000000000000000000000000000000000000 <
b0 H
1B
b0 L
b1111111111111111111111111111111111111111111111111111110000000001 >
b1111111111111111111111111111111111111111111111111111110000000001 ?
b1111111111111111111111111111111111111111111111111111110000000001 @
b0 A
b0 M
0E
b0 *
b0 ,
b0 )
b0 +
#50000
b11111111110000000000000000000000000000000000000000000000000000 &
b11111111110000000000000000000000000000000000000000000000000000 8
01
0.
b11111111110000000000000000000000000000000000000000000000000000 7
b1111111111 L
0B
b1111111111 >
b1111111111 ?
b1111111111 @
b11111111110 A
b1111111111 M
b11111111110000000000000000000000000000000000000000000000000000 *
b11111111110000000000000000000000000000000000000000000000000000 ,
b11111111110000000000000000000000000000000000000000000000000000 )
b11111111110000000000000000000000000000000000000000000000000000 +
#60000
b11111111110000000000000000000000000000000000000000000000000000 &
b11111111110000000000000000000000000000000000000000000000000000 8
1G
b11111111110000000000000000000000000000000000000000000000000000 7
b11001100110011001100110011001100110011001100110011010 %
b11001100110011001100110011001100110011001100110011010 4
b1001100110011001100110011001100110011001100110011010 H
b1111111011 L
b10100000000000000000000000000000000000000000000000000 $
b10100000000000000000000000000000000000000000000000000 5
b1000000000000000000000000000000000000000000000000000001000000000000000000000000000000000000000000000000000 "
b1000000000000000000000000000000000000000000000000000001000000000000000000000000000000000000000000000000000 <
b100000000000000000000000000000000000000000000000000 I
b1111111111 >
b1111111111 ?
b1111111110 @
b11111111101 A
b10000000010 M
b11111110111001100110011001100110011001100110011001100110011010 *
b11111110111001100110011001100110011001100110011001100110011010 ,
b100000000100100000000000000000000000000000000000000000000000000 )
b100000000100100000000000000000000000000000000000000000000000000 +
#70000
b1001000000000000000000000000000000000000000000000000 (
b1001000000000000000000000000000000000000000000000000 ;
b11001000000000000000000000000000000000000000000000000 '
b100000000111001000000000000000000000000000000000000000000000000 &
b100000000111001000000000000000000000000000000000000000000000000 8
b11001000000000000000000000000000000000000000000000000 :
b11001000000000000000000000000000000000000000000000000 9
b11001000000000000000000000000000000000000000000000000 !
b11001000000000000000000000000000000000000000000000000 =
0G
b100000000111001000000000000000000000000000000000000000000000000 7
b10100000000000000000000000000000000000000000000000000 %
b10100000000000000000000000000000000000000000000000000 4
b110010000000000000000000000000000000000000000000000000000000000000000000000000000000000000000000000000000 "
b110010000000000000000000000000000000000000000000000000000000000000000000000000000000000000000000000000000 <
b100000000000000000000000000000000000000000000000000 H
b10000000001 L
1D
b10000000011 >
b10000000011 ?
b10000000011 @
b100000000010 A
b10000000001 M
1E
b1100000000010100000000000000000000000000000000000000000000000000 *
b1100000000010100000000000000000000000000000000000000000000000000 ,
b1100000000010100000000000000000000000000000000000000000000000000 )
b1100000000010100000000000000000000000000000000000000000000000000 +
